{
  "version": "independent",
  "npmClient": "yarn",
  "useWorkspaces": true,
  "packages": [
    "packages/*"
  ],
  "command": {
    "version": {
      "conventionalCommits": true,
      "ignoreChanges": [
        "**/*.test.js",
        "**/.eslintrc.js",
        "**/jest.config.js"
      ]
    },
    "publish": {
      "conventionalCommits": true,
      "allowBranch": ["master", "develop"],
      "message": "chore(release): publish"
    }
  }
}
